,1,2,3,4,5,6,7,8,10,11,12,13,14,15,16,17,18,19,20,21,22,23,24,25,26,27,28,29,30,31,32,33,34,35,36,37,38,39,40,41,42,46,47,48,51,52
Amnat_Charoen,0,0,0,0,0,0,0,1,0,0,0,0,1,0,0,0,0,0,1,0,0,3,0,8,0,13,5,20,30,6,0,1,20,1,11,7,7,12,3,1,0,0,3,1,5,0
Ang_Thong,0,2,1,3,6,0,3,10,3,0,4,1,5,11,0,7,23,6,4,2,1,6,1,4,6,5,6,5,8,2,8,6,9,7,6,11,0,23,11,3,5,9,3,8,9,4
Bangkok_Metropolis,11,67,52,0,120,0,96,96,0,82,88,0,0,0,76,156,209,0,62,0,102,19,70,0,164,102,0,237,187,121,287,0,468,0,459,0,459,276,239,217,306,497,486,0,528,339
Bueng_Kan,0,0,0,0,0,0,0,0,0,0,0,0,0,0,0,0,0,0,0,0,1,0,0,0,0,0,0,1,0,0,0,0,0,0,1,0,0,1,0,0,0,0,0,2,11,2
Buri_Ram,0,0,0,2,7,0,2,4,0,12,2,4,7,0,15,12,38,15,33,0,95,14,118,56,90,90,135,113,0,80,215,40,81,49,1,61,66,87,79,63,38,20,41,63,0,0
Chachoengsao,0,0,0,26,0,0,4,13,5,11,8,6,8,1,9,7,38,32,11,14,6,0,23,29,26,33,49,16,32,63,68,42,49,57,46,33,32,53,35,24,19,15,33,0,0,39
Chai_Nat,1,0,3,4,2,3,2,14,4,10,12,9,8,2,7,6,29,9,8,6,4,2,1,8,2,7,8,3,14,2,8,5,5,2,8,10,8,4,5,8,4,14,20,25,19,19
Chaiyaphum,0,2,0,7,1,1,9,14,1,2,5,2,12,9,9,12,44,12,18,15,66,0,75,20,0,83,15,66,61,63,45,0,89,0,0,1,1,1,1,22,0,24,18,10,15,0
Chanthaburi,0,1,1,0,8,0,4,7,0,1,2,0,19,5,0,18,36,11,5,59,0,0,51,0,56,56,6,59,54,19,18,15,23,11,39,4,15,2,22,2,10,10,8,4,3,8
Chiang_Mai,1,1,3,4,2,0,3,8,0,0,3,2,3,2,6,0,15,9,10,8,22,19,29,55,-24,105,36,46,64,16,53,55,14,36,154,49,62,125,18,56,50,44,33,37,68,-33
Chiang_Rai,2,1,0,0,1,0,2,7,0,0,3,0,-1,0,1,0,10,20,13,3,8,24,27,51,31,30,54,36,51,31,68,62,59,9,110,30,51,39,17,39,16,0,69,5,53,21
Chon_Buri,0,9,0,13,16,0,14,22,6,7,13,20,0,8,6,33,47,0,0,0,61,7,0,0,0,105,24,0,25,57,0,0,0,0,123,0,31,52,48,14,24,48,36,0,46,29
Chumphon,0,0,0,7,0,0,8,14,3,5,5,11,5,4,14,7,44,24,34,25,0,3,14,3,12,55,37,51,39,39,35,30,51,39,31,32,10,0,41,14,12,10,5,17,28,35
Kalasin,2,0,0,-1,0,0,3,4,0,5,3,1,3,2,2,4,14,5,6,8,5,4,0,25,0,11,1,13,8,0,13,6,6,17,4,6,0,0,25,7,6,7,2,10,9,2
Kamphaeng_Phet,2,1,4,1,7,0,8,14,7,10,12,11,7,11,8,33,70,15,21,9,11,6,17,5,33,61,4,37,33,74,35,0,12,15,107,48,44,34,26,39,45,15,29,23,11,8
Kanchanaburi,0,1,0,12,21,0,10,23,0,12,8,12,13,0,0,0,42,44,0,22,0,11,0,34,0,78,0,0,0,93,61,32,26,0,73,46,-1,111,0,54,8,0,26,0,21,0
Khon_Kaen,0,5,8,4,7,0,4,10,8,8,16,9,0,4,8,16,51,33,19,18,36,0,55,29,58,75,30,33,26,44,41,18,31,30,23,18,55,18,32,36,34,36,42,41,43,27
Krabi,0,10,12,3,27,0,16,56,0,53,0,36,87,27,26,76,226,89,15,67,0,16,44,0,91,17,58,12,15,49,22,36,25,38,0,30,0,32,0,26,0,23,33,26,0,54
Lampang,0,1,0,2,0,3,2,2,0,1,2,0,1,0,1,0,3,2,1,2,1,1,6,14,6,0,18,7,0,0,21,7,0,0,28,2,9,1,1,0,3,1,7,0,12,4
Lamphun,0,0,0,0,0,0,2,2,0,0,0,1,0,0,0,0,0,0,0,0,0,0,0,2,2,2,0,2,2,0,3,1,1,4,1,3,0,14,0,0,0,0,28,0,0,22
Loei,0,0,1,0,0,0,2,8,0,0,1,1,0,0,3,5,14,11,20,31,39,21,17,57,2,104,4,47,36,15,52,0,0,2,20,7,21,9,5,14,13,15,9,12,22,24
Lop_Buri,9,13,15,7,7,6,15,41,13,23,0,35,19,0,27,14,64,16,0,38,14,0,25,24,0,22,45,0,29,56,47,50,79,36,73,0,103,83,69,15,49,80,0,-2,0,0
Mae_Hong_Son,0,0,0,0,0,0,0,0,0,0,0,2,0,0,0,0,0,0,0,0,3,0,0,0,8,1,0,13,3,7,0,4,1,-1,0,0,1,0,6,0,0,0,2,5,-1,2
Maha_Sarakham,0,4,5,0,5,0,1,8,4,2,3,3,1,1,4,11,22,11,13,19,14,19,6,39,19,41,31,31,36,32,56,35,2,59,29,48,54,47,32,23,47,0,81,31,61,0
Mukdahan,0,0,0,2,1,0,1,4,0,0,0,0,0,0,0,0,3,3,1,2,3,7,1,30,50,-38,12,0,17,0,2,6,0,1,33,3,9,0,4,0,3,6,8,0,0,13
Nakhon_Nayok,0,0,0,0,0,5,0,0,0,0,0,0,9,0,0,0,1,1,0,0,0,0,0,0,0,1,0,0,1,0,0,1,0,0,2,0,0,0,2,1,0,0,0,0,0,0
Nakhon_Pathom,13,8,18,0,22,0,10,24,7,16,7,17,17,7,1,12,41,15,3,15,6,7,10,9,7,48,14,34,4,0,74,17,25,47,9,44,23,62,57,28,39,70,0,55,43,7
Nakhon_Phanom,0,0,0,0,1,0,0,0,0,0,1,0,1,0,0,4,6,3,10,0,19,1,11,5,16,14,8,1,19,11,11,1,7,11,4,0,4,5,16,3,3,9,15,14,8,7
Nakhon_Ratchasima,6,15,10,21,20,0,7,38,12,9,9,28,9,21,21,0,108,88,61,62,92,26,91,145,1,142,118,20,152,0,205,0,197,76,86,44,59,67,73,81,0,124,0,0,82,0
Nakhon_Sawan,6,1,11,4,3,2,4,15,3,5,10,10,10,12,5,5,34,14,17,30,-8,0,45,99,0,97,67,22,75,52,88,0,87,72,109,66,68,38,92,22,0,30,173,78,69,42
Nakhon_Si_Thammarat,0,1,6,10,7,1,0,12,0,0,18,0,15,6,14,0,31,10,9,0,20,0,21,25,0,19,8,8,18,33,9,3,19,60,1,14,3,55,28,0,0,29,70,0,28,191
Nan,0,0,0,0,0,2,0,1,0,0,1,0,0,0,1,0,1,0,3,0,6,0,2,16,3,20,0,14,4,0,22,13,2,7,1,4,5,8,4,3,3,5,3,0,4,4
Narathiwat,0,6,6,10,3,0,16,40,4,3,10,5,4,2,0,5,12,5,11,4,7,0,0,0,23,8,3,0,11,4,13,3,4,3,0,3,2,3,1,5,13,14,24,10,16,35
Nong_Bua_Lam_Phu,0,0,0,0,0,1,2,5,1,0,1,2,1,1,1,2,7,3,9,9,14,6,3,7,13,18,21,13,7,5,9,11,4,5,1,6,0,1,3,3,2,5,5,4,7,4
Nong Khai,0,0,1,0,1,2,0,1,0,0,0,2,1,0,1,0,2,1,2,4,2,0,0,1,0,31,1,0,7,9,0,1,7,5,0,3,0,13,0,0,0,0,0,0,7,0
Nonthaburi,8,0,14,7,0,0,6,11,5,8,9,6,7,2,5,0,20,9,12,0,9,7,0,10,12,4,9,17,10,5,25,10,16,30,47,17,50,32,36,8,23,33,29,35,51,25
Pathum_Thani,0,0,4,1,0,0,0,9,0,0,4,1,5,2,0,4,11,6,3,0,2,0,1,0,0,14,1,7,3,9,23,15,4,21,13,0,9,11,7,2,6,10,24,12,20,19
Pattani,0,1,1,2,1,6,9,10,0,2,4,1,-1,0,2,1,13,12,0,0,6,3,7,4,2,9,2,5,9,5,2,7,10,8,0,3,1,3,0,2,9,22,9,11,0,22
Phangnga,0,0,0,4,6,12,9,12,0,6,1,0,5,1,9,0,37,29,2,25,12,0,3,0,48,15,0,46,0,17,42,1,8,9,5,0,0,5,6,0,6,6,0,0,0,33
Phatthalung,5,10,11,4,3,5,6,35,4,14,3,3,5,9,4,1,33,30,14,14,23,10,36,8,20,16,14,8,13,9,13,8,7,11,9,4,17,11,21,10,14,82,20,75,50,69
Phayao,0,0,0,0,0,1,0,0,0,0,0,0,1,0,0,0,2,2,2,6,6,2,1,6,2,14,12,4,7,3,2,0,5,3,11,0,2,4,0,2,0,2,5,0,2,0
Phetchabun,0,4,3,1,0,0,2,13,4,5,9,8,2,12,6,10,37,28,29,17,30,0,26,45,10,33,26,16,6,0,0,0,0,0,0,17,18,20,7,12,3,3,19,12,10,8
Phetchaburi,3,2,5,5,0,0,0,8,2,5,-1,3,2,0,0,12,13,0,0,13,12,0,29,0,0,0,0,0,0,0,0,24,7,8,2,4,2,12,7,1,5,5,5,8,12,9
Phichit,0,7,5,-6,0,6,4,14,1,16,7,14,2,2,1,5,13,10,4,7,11,9,0,10,19,15,7,16,12,14,25,26,13,37,32,0,0,28,34,18,11,14,13,11,4,5
Phitsanulok,0,4,10,2,0,6,6,13,1,5,9,11,13,11,13,29,84,32,29,23,25,0,64,28,39,56,35,59,56,11,36,33,74,45,46,44,27,31,32,38,17,55,23,23,24,19
Phra_Nakhon_Si_Ayutthaya,0,3,1,2,3,5,0,2,2,0,5,1,2,1,7,2,10,1,3,3,8,1,3,0,0,18,2,0,9,1,17,12,12,12,23,15,0,60,19,22,23,35,39,28,29,16
Phrae,0,0,0,0,1,0,0,0,0,0,0,0,0,0,2,1,11,14,4,10,2,1,15,35,39,24,15,15,46,17,56,22,22,27,23,6,4,7,14,2,2,4,3,3,0,0
Phuket,0,4,1,5,0,0,0,3,0,0,0,0,0,0,0,19,42,23,2,25,15,0,3,0,13,16,0,0,9,8,2,1,7,6,5,0,5,0,5,0,6,0,8,15,2,6
Prachin_Buri,0,1,0,3,0,0,4,9,1,10,2,0,7,7,0,8,39,24,13,17,5,0,4,16,12,11,5,22,9,42,18,12,19,22,39,2,19,31,11,5,0,5,0,11,12,3
Prachuap_Khiri_Khan,1,0,13,2,1,5,1,7,4,0,9,0,13,0,14,0,32,15,18,11,10,15,0,10,9,8,28,9,8,6,19,0,11,11,0,7,5,0,20,7,0,15,0,4,12,13
Ranong,0,0,0,1,2,3,0,0,0,14,0,18,5,10,0,6,22,6,2,5,10,3,0,15,0,0,1,7,0,0,18,0,1,2,3,0,3,2,1,0,0,0,0,6,0,3
Ratchaburi,0,2,0,61,30,1,25,38,8,7,30,17,16,12,8,16,66,31,15,0,17,0,30,16,0,0,5,54,10,62,60,0,33,44,11,21,0,99,57,15,0,0,0,105,0,7
Rayong,2,10,10,38,51,3,12,38,16,21,16,20,8,27,10,36,112,73,47,63,69,41,34,63,52,87,42,180,144,6,236,61,97,138,74,99,45,89,57,26,18,87,72,64,42,69
Roi_Et,0,1,1,3,3,1,4,6,0,6,0,1,1,1,2,3,15,12,4,11,24,6,17,62,51,41,16,45,55,21,17,34,48,33,30,24,22,42,17,17,28,32,35,25,35,44
Sa_Kaeo,0,1,0,0,4,0,6,9,4,6,13,15,0,0,1,6,29,22,8,0,9,11,11,0,8,101,1,8,14,82,29,1,1,15,2,11,1,43,5,6,20,0,0,6,3,1
Sakon_Nakhon,0,0,0,1,0,0,0,0,0,0,2,0,0,0,0,1,2,1,1,0,1,0,5,1,1,10,0,0,2,0,5,0,2,2,4,0,2,1,0,1,0,2,2,2,0,0
Samut_Prakan,0,6,17,7,9,1,8,8,3,0,6,0,0,0,0,0,28,28,0,11,0,4,0,30,20,0,24,2,15,5,19,10,16,22,11,4,12,32,12,3,6,54,0,40,25,82
Samut_Sakhon,0,6,18,0,46,4,9,31,0,13,1,0,0,0,0,9,34,25,33,0,0,7,0,21,0,42,11,20,20,16,39,17,24,34,15,0,60,0,35,27,0,41,48,0,0,0
Samut_Songkhram,1,3,3,3,6,6,5,14,0,3,3,2,3,3,4,0,9,4,5,3,4,3,6,1,6,5,7,5,6,3,13,9,10,3,8,6,4,3,1,15,11,6,6,5,6,5
Saraburi,0,0,0,12,4,0,8,19,0,3,2,5,0,0,0,9,22,13,7,0,4,0,2,9,7,23,5,26,17,21,39,16,11,15,27,18,8,31,15,6,25,13,25,13,6,7
Satun,0,0,0,26,14,1,14,20,5,4,11,11,1,1,7,0,36,28,6,0,0,0,2,6,0,32,0,13,6,2,11,0,6,9,6,2,4,4,0,0,0,4,0,20,0,17
Si_Sa_Ket,3,1,0,10,7,0,6,11,0,0,3,9,24,8,0,25,45,21,2,0,33,0,47,2,53,184,74,47,62,43,42,33,44,26,131,2,65,63,35,19,37,35,15,18,22,31
Sing_Buri,0,0,0,0,0,8,0,1,0,1,1,0,0,1,0,0,3,2,0,0,0,0,0,1,1,1,0,0,0,4,0,0,0,0,0,0,0,0,1,0,2,1,0,0,0,3
Songkhla,6,19,15,13,21,0,22,67,15,9,17,18,12,19,31,24,126,58,82,60,0,42,54,48,43,46,43,40,57,44,61,41,39,22,8,42,37,47,24,63,102,145,119,131,343,129
Sukhothai,0,2,2,5,2,4,3,6,1,0,1,7,0,4,4,2,15,6,5,2,9,0,7,13,10,10,1,17,12,11,28,12,1,28,19,11,27,4,4,2,18,7,14,4,5,5
Suphan_Buri,0,1,4,18,7,0,11,20,2,9,11,2,7,4,1,7,36,23,2,0,2,0,0,1,2,3,2,12,9,2,6,0,1,5,14,4,2,30,5,7,2,0,15,13,15,30
Surat_Thani,1,0,3,13,7,13,9,13,4,9,10,5,14,2,7,6,43,33,16,4,13,4,29,28,9,34,24,40,25,28,70,13,35,31,27,20,-25,66,18,19,31,32,34,69,30,72
Surin,0,1,1,2,1,15,0,9,1,0,8,0,5,1,0,6,44,43,13,0,27,2,0,44,94,75,0,39,76,171,46,59,0,86,129,0,25,97,70,65,0,51,0,0,0,23
Tak,0,0,7,6,5,0,0,7,0,3,5,2,1,2,1,3,5,-1,4,0,1,5,19,24,0,44,44,0,53,36,1,47,13,0,31,5,0,25,15,11,0,22,14,0,19,14
Trang,0,6,0,0,0,0,0,1,0,0,0,3,9,0,0,0,0,0,0,0,46,0,0,0,0,4,0,0,8,0,25,8,0,46,0,0,0,6,0,0,0,0,0,21,0,43
Trat,0,0,1,2,5,11,0,0,2,4,4,5,0,1,7,0,42,34,9,0,19,0,3,8,13,16,4,0,27,6,4,0,0,22,12,5,0,22,0,1,8,1,6,4,6,3
Ubon_Ratchathani,0,2,1,1,0,3,2,2,2,1,7,3,12,13,3,3,30,14,24,6,37,1,19,15,28,40,12,17,40,16,25,23,31,17,14,16,42,25,45,12,16,23,31,29,19,18
Udon_Thani,0,0,0,3,0,0,0,0,0,0,2,2,-4,0,3,0,7,4,4,9,8,11,21,19,12,30,21,14,23,38,30,17,30,17,8,25,7,14,12,13,11,17,13,17,10,2
Uthai_Thani,1,2,4,3,1,2,7,13,7,3,2,3,3,11,3,12,33,11,16,3,18,12,37,26,6,34,10,8,16,2,22,15,17,18,18,10,14,6,9,9,7,13,6,14,4,11
Uttaradit,0,0,4,5,0,2,2,4,0,4,2,0,0,1,2,1,10,11,8,6,20,6,32,16,0,16,35,7,22,6,39,17,5,25,29,20,11,5,5,1,8,11,8,8,6,9
Yala,0,0,0,2,3,24,0,3,2,0,1,5,2,0,2,3,13,10,6,4,0,1,6,5,1,0,2,5,5,3,10,4,5,6,10,7,3,4,11,11,12,20,2,20,17,4
Yasothon,0,0,0,0,0,0,0,0,0,0,0,2,0,-2,0,0,5,7,4,2,0,6,0,10,13,13,20,14,20,33,20,7,20,17,2,15,15,19,13,6,7,1,0,12,5,3
